<svg width="24" height="24" viewBox="0 0 24 24" fill="none" xmlns="http://www.w3.org/2000/svg">
<path fill-rule="evenodd" clip-rule="evenodd" d="M5 16H8V19H10V14H5V16ZM8 8H5V10H10V5H8V8ZM14 19H16V16H19V14H14V19ZM16 8V5H14V10H19V8H16Z" fill="#110F24"/>
</svg>
