<svg width="24" height="24" viewBox="0 0 24 24" fill="none" xmlns="http://www.w3.org/2000/svg">
<path fill-rule="evenodd" clip-rule="evenodd" d="M12 2L4.5 20.29L5.21 21L12 18L18.79 21L19.5 20.29L12 2Z" fill="#110F24"/>
</svg>
