<svg width="24" height="24" viewBox="0 0 24 24" fill="none" xmlns="http://www.w3.org/2000/svg">
<path fill-rule="evenodd" clip-rule="evenodd" d="M7.11001 8.53L5.70001 7.11C4.80001 8.27 4.24001 9.61 4.07001 11H6.09001C6.23001 10.13 6.58001 9.28 7.11001 8.53ZM6.09001 13H4.07001C4.24001 14.39 4.79001 15.73 5.69001 16.89L7.10001 15.47C6.58001 14.72 6.23001 13.88 6.09001 13ZM7.10001 18.32C8.26001 19.22 9.61001 19.76 11 19.93V17.9C10.13 17.75 9.29001 17.41 8.54001 16.87L7.10001 18.32ZM13 4.07V1L8.45001 5.55L13 10V6.09C15.84 6.57 18 9.03 18 12C18 14.97 15.84 17.43 13 17.91V19.93C16.95 19.44 20 16.08 20 12C20 7.92 16.95 4.56 13 4.07Z" fill="#110F24"/>
</svg>
