<svg width="24" height="24" viewBox="0 0 24 24" fill="none" xmlns="http://www.w3.org/2000/svg">
<path fill-rule="evenodd" clip-rule="evenodd" d="M2.01 21L23 12L2.01 3L2 10L17 12L2 14L2.01 21Z" fill="#110F24"/>
</svg>
