<svg width="24" height="24" viewBox="0 0 24 24" fill="none" xmlns="http://www.w3.org/2000/svg">
<path fill-rule="evenodd" clip-rule="evenodd" d="M1 9.00001L3 11C7.97 6.03001 16.03 6.03001 21 11L23 9.00001C16.93 2.93001 7.08 2.93001 1 9.00001ZM9 17L12 20L15 17C13.35 15.34 10.66 15.34 9 17ZM5 13L7 15C9.76 12.24 14.24 12.24 17 15L19 13C15.14 9.14001 8.87 9.14001 5 13Z" fill="#110F24"/>
</svg>
